…
Columns 1-8 are very interesting, especially the gender and type
columns, so I’ll run table() to investigate further

    ## 
    ##  -  F  M 
    ## 13 18 64

According to the data, I have 64 male Pokémon, 18 female Pokémon and 13
genderless. As an aside, there exists a programming quirk in Gen 2 where
stats have a bias towards male Pokémon.

So next, let’s take a better look at the types of Pokémon we have.

    ## # A tibble: 95 × 3
    ##    Species  Type1   Type2 
    ##    <chr>    <chr>   <chr> 
    ##  1 Lugia    Psychic Flying
    ##  2 Scizor   Bug     Steel 
    ##  3 Miltank  Normal  <NA>  
    ##  4 Abra     Psychic <NA>  
    ##  5 Granbull Normal  <NA>  
    ##  6 Ditto    Normal  <NA>  
    ##  7 Metapod  Bug     <NA>  
    ##  8 Kakuna   Bug     <NA>  
    ##  9 Unown    Psychic <NA>  
    ## 10 Vulpix   Fire    <NA>  
    ## # … with 85 more rows
…
